C:\Users\Njegos\Desktop\Workspace\HerokuDemo\src\main\java\ProjectCode\service\impl\HerokuDemoServiceImpl.java
C:\Users\Njegos\Desktop\Workspace\HerokuDemo\src\main\java\ProjectCode\HerokuDemoApplication.java
C:\Users\Njegos\Desktop\Workspace\HerokuDemo\src\main\java\ProjectCode\service\HerokuDemoService.java
C:\Users\Njegos\Desktop\Workspace\HerokuDemo\src\main\java\ProjectCode\controller\HelloHerokuController.java
C:\Users\Njegos\Desktop\Workspace\HerokuDemo\src\main\java\ProjectCode\repository\HerokuDemoRepository.java
C:\Users\Njegos\Desktop\Workspace\HerokuDemo\src\main\java\ProjectCode\config\CorsConfigurer.java
C:\Users\Njegos\Desktop\Workspace\HerokuDemo\src\main\java\ProjectCode\config\FlywayFactory.java
C:\Users\Njegos\Desktop\Workspace\HerokuDemo\src\main\java\ProjectCode\model\HerokuUser.java
